"","x","y"
"1",0,0
"2",0.1,0.199666833293656
"3",0.2,0.397338661590122
"4",0.3,0.59104041332268
"5",0.4,0.778836684617302
"6",0.5,0.958851077208406
"7",0.6,1.12928494679007
"8",0.7,1.28843537447538
"9",0.8,1.43471218179905
"10",0.9,1.56665381925497
"11",1,1.68294196961579
"12",1.1,1.78241472012287
"13",1.2,1.86407817193445
"14",1.3,1.92711637083439
"15",1.4,1.97089945997692
"16",1.5,1.99498997320811
"17",1.6,1.99914720608301
"18",1.7,1.98332962090494
"19",1.8,1.94769526175639
"20",1.9,1.89260017537483
"21",2,1.81859485365136
"22",2.1,1.72641873329775
"23",2.2,1.61699280763918
"24",2.3,1.49141042435344
"25",2.4,1.3509263611023
"26",2.5,1.19694428820791
"27",2.6,1.03100274364293
"28",2.7,0.85475976046766
"29",2.8,0.66997630031181
"30",2.9,0.478498658427964
"31",3,0.282240016119734
"32",3.1,0.083161324866581
"33",3.2,-0.11674828685516
"34",3.3,-0.315491388286498
"35",3.4,-0.511082204053664
"36",3.5,-0.70156645537924
"37",3.6,-0.885040886589704
"38",3.7,-1.05967228181699
"39",3.8,-1.22371578188544
"40",3.9,-1.37553231836795
"41",4,-1.51360499061586
"42",4.1,-1.63655422212882
"43",4.2,-1.74315154482718
"44",4.3,-1.83233187349891
"45",4.4,-1.90320414777903
"46",4.5,-1.95506023533019
"47",4.6,-1.98738200726693
"48",4.7,-1.9998465151282
"49",4.8,-1.99232921767168
"50",4.9,-1.96490522524866
"51",5,-1.91784854932628
"52",5.1,-1.85162936465546
"53",5.2,-1.76690931144031
"54",5.3,-1.6645348844478
"55",5.4,-1.54552897511197
"56",5.5,-1.41108065114078
"57",5.6,-1.26253327574464
"58",5.7,-1.10137108519528
"59",5.8,-0.929204358827514
"60",5.9,-0.747753329660472
"61",6,-0.558830996397852
"62",6.1,-0.36432500854419
"63",6.2,-0.166178805634993
"64",6.3,0.0336278009687012
"65",6.4,0.233098409700988
"66",6.5,0.430239976175632
"67",6.6,0.623082727026758
"68",6.7,0.809699841233196
"69",6.8,0.988226702277218
"70",6.9,1.1568795287764
"71",7,1.31397319743758
"72",7.1,1.45793808025175
"73",7.2,1.58733572769831
"74",7.3,1.70087324125713
"75",7.4,1.79741619162325
"76",7.5,1.87599995354948
"77",7.6,1.93583934406297
"78",7.7,1.976336467754
"79",7.8,1.99708669074921
"80",7.9,1.99788268367954
"81",8,1.97871649324676
"82",8.1,1.93977962169017
"83",8.2,1.88146111335955
"84",8.3,1.80434366751259
"85",8.4,1.70919781617656
"86",8.5,1.59697422524698
"87",8.6,1.46879419574823
"88",8.7,1.32593846016436
"89",8.8,1.16983438578352
"90",8.9,1.00204171291577
"91",9,0.824236970483514
"92",9.1,0.638196724698704
"93",9.2,0.445779828200492
"94",9.3,0.248908847014124
"95",9.4,0.0495508509067156
"96",9.5,-0.150302240923619
"97",9.6,-0.348653562445962
"98",9.7,-0.543521252821888
"99",9.8,-0.732958258503856
"100",9.9,-0.915071787550642
"101",10,-1.08804222177874
